module gitlab.com/ydkn/plex-random-playlists

go 1.23.0

toolchain go1.24.1

require (
	github.com/spf13/cobra v1.9.1
	github.com/spf13/viper v1.20.0
	go.uber.org/zap v1.27.0
)

require (
	github.com/fsnotify/fsnotify v1.8.0 // indirect
	github.com/go-viper/mapstructure/v2 v2.2.1 // indirect
	github.com/inconshreveable/mousetrap v1.1.0 // indirect
	github.com/pelletier/go-toml/v2 v2.2.3 // indirect
	github.com/sagikazarmark/locafero v0.8.0 // indirect
	github.com/sourcegraph/conc v0.3.0 // indirect
	github.com/spf13/afero v1.14.0 // indirect
	github.com/spf13/cast v1.7.1 // indirect
	github.com/spf13/pflag v1.0.6 // indirect
	github.com/subosito/gotenv v1.6.0 // indirect
	go.uber.org/multierr v1.11.0 // indirect
	golang.org/x/sys v0.31.0 // indirect
	golang.org/x/text v0.23.0 // indirect
	gopkg.in/check.v1 v1.0.0-20201130134442-10cb98267c6c // indirect
	gopkg.in/yaml.v3 v3.0.1 // indirect
)
